; Engine configuration file.
; It's best edited using the editor UI and not directly,
; since the parameters that go here are not all obvious.
;
; Format:
;   [section] ; section goes between []
;   param=value ; assign values to parameters

config_version=4

_global_script_classes=[  ]
_global_script_class_icons={

}

[application]

config/name="Organized Industry"
run/main_scene="res://city/City.tscn"
config/icon="res://icon.png"

[debug]

settings/fps/force_fps=30
settings/stdout/print_fps=true

[display]

window/size/width=1280
window/size/height=720

[rendering]

environment/default_environment="res://default_env.tres"
